FaceData/processed\LeTrongDuc\WIN_20200820_19_06_19_Pro.png 657 152 1006 590
FaceData/processed\LeTrongDuc\WIN_20200820_19_06_23_Pro.png 619 212 955 620
FaceData/processed\LeTrongDuc\WIN_20200820_19_05_49_Pro.png 545 294 802 607
FaceData/processed\LeTrongDuc\WIN_20200820_19_06_00_Pro.png 467 119 891 644
FaceData/processed\LeTrongDuc\WIN_20200820_19_06_10_Pro.png 413 76 817 585
FaceData/processed\LeTrongDuc\WIN_20200820_19_06_13_Pro.png 536 69 930 585
FaceData/processed\LeTrongDuc\WIN_20200820_19_06_43_Pro.png 521 113 918 608
FaceData/processed\LeTrongDuc\WIN_20200820_19_06_46_Pro.png 524 178 926 675
FaceData/processed\LeTrongDuc\WIN_20200820_19_06_39_Pro.png 608 272 873 591
FaceData/processed\LeTrongDuc\WIN_20200820_19_05_56_Pro.png 524 153 905 630
FaceData/processed\LeTrongDuc\WIN_20200820_19_06_53_Pro.png 539 113 902 562
FaceData/processed\LeTrongDuc\WIN_20200820_19_06_58_Pro.png 479 130 832 568
FaceData/processed\LeTrongDuc\WIN_20200820_19_06_29_Pro.png 584 145 886 523
FaceData/processed\LeTrongDuc\WIN_20200820_19_06_33_Pro.png 663 139 984 561
FaceData/processed\LeTrongDuc\WIN_20200820_19_06_49_Pro.png 543 176 933 675
FaceData/processed\LeTrongDuc\WIN_20200820_19_06_26_Pro.png 605 123 934 514
FaceData/processed\VuMinhDuc\WIN_20200820_18_11_33_Pro.png 501 167 880 663
FaceData/processed\VuMinhDuc\WIN_20200820_19_05_56_Pro.png 351 159 762 690
FaceData/processed\VuMinhDuc\WIN_20200820_19_05_47_Pro.png 415 155 824 686
FaceData/processed\VuMinhDuc\WIN_20200820_19_05_55_Pro.png 387 212 810 720
FaceData/processed\VuMinhDuc\WIN_20200820_18_11_38_Pro.png 479 195 824 628
FaceData/processed\VuMinhDuc\WIN_20200820_19_05_43_Pro.png 471 127 860 628
FaceData/processed\VuMinhDuc\WIN_20200820_19_05_45_Pro.png 463 133 861 654
FaceData/processed\VuMinhDuc\WIN_20200820_19_06_00_Pro.png 514 170 871 688
FaceData/processed\VuMinhDuc\WIN_20200820_18_02_27_Pro (2).png 198 241 531 650
FaceData/processed\VuMinhDuc\WIN_20200820_18_02_32_Pro (2).png 142 143 460 522
FaceData/processed\VuMinhDuc\WIN_20200820_19_05_54_Pro.png 442 186 840 704
FaceData/processed\VuMinhDuc\WIN_20200820_18_11_36_Pro.png 532 171 874 624
FaceData/processed\VuMinhDuc\WIN_20200820_19_05_51_Pro.png 459 131 809 539
FaceData/processed\VuMinhDuc\WIN_20200820_19_05_57_Pro.png 424 137 761 532
FaceData/processed\VuMinhDuc\WIN_20200820_19_05_58_Pro.png 472 148 805 528
FaceData/processed\VuMinhDuc\WIN_20200820_19_05_53_Pro.png 414 156 806 662
FaceData/processed\VuMinhDuc\WIN_20200820_19_05_59_Pro.png 464 177 841 678
FaceData/processed\VuMinhDuc\WIN_20200820_18_02_26_Pro (2).png 214 185 548 604
FaceData/processed\VuMinhDuc\WIN_20200820_19_05_46_Pro.png 377 118 793 642
FaceData/processed\VuMinhDuc\WIN_20200820_19_05_52_Pro.png 415 138 754 542
FaceData/processed\VuMinhDuc\WIN_20200820_18_11_39_Pro.png 470 203 824 644
FaceData/processed\VuMinhDuc\WIN_20200820_19_05_42_Pro.png 474 86 891 648
FaceData/processed\VuMinhDuc\WIN_20200820_18_11_35_Pro.png 490 205 864 688
FaceData/processed\VuMinhDuc\WIN_20200820_19_05_49_Pro.png 375 200 813 720
FaceData/processed\VuMinhDuc\WIN_20200820_19_06_02_Pro.png 353 230 789 720
FaceData/processed\VuMinhDuc\WIN_20200820_18_02_30_Pro (2).png 202 193 539 608
FaceData/processed\PhamAnhDung\WIN_20200820_18_03_27_Pro.png 313 52 493 261
FaceData/processed\PhamAnhDung\WIN_20200820_18_03_32_Pro.png 304 39 489 247
FaceData/processed\PhamAnhDung\WIN_20200820_18_03_29_Pro.png 319 49 490 238
FaceData/processed\PhamAnhDung\WIN_20200820_18_03_30_Pro.png 320 52 488 234
FaceData/processed\PhamAnhDung\WIN_20200820_18_03_26_Pro.png 304 43 496 288
FaceData/processed\PhamAnhDung\WIN_20200820_18_03_05_Pro.png 296 51 489 299
FaceData/processed\PhamAnhDung\WIN_20200820_18_03_39_Pro.png 297 60 489 312
FaceData/processed\PhamAnhDung\WIN_20200820_18_03_34_Pro.png 310 53 482 254
FaceData/processed\PhamAnhDung\WIN_20200820_18_03_07_Pro.png 310 49 497 301
FaceData/processed\PhamAnhDung\WIN_20200820_18_03_21_Pro.png 303 87 493 328
FaceData/processed\PhamAnhDung\WIN_20200820_18_03_37_Pro.png 325 60 516 317
FaceData/processed\PhamAnhDung\WIN_20200820_18_03_17_Pro.png 277 63 455 294
FaceData/processed\PhamAnhDung\WIN_20200820_18_03_09_Pro.png 330 66 510 296
FaceData/processed\PhamAnhDung\WIN_20200820_18_03_18_Pro.png 253 74 418 292
FaceData/processed\PhamAnhDung\WIN_20200820_18_03_10_Pro.png 360 81 530 310
FaceData/processed\PhamAnhDung\WIN_20200820_18_03_23_Pro.png 312 140 507 360
FaceData/processed\PhamAnhDung\WIN_20200820_18_03_16_Pro.png 285 52 484 302
FaceData/processed\PhamAnhDung\WIN_20200820_18_03_14_Pro.png 296 46 494 298
